Project.vcd
$comment
Copyright (C) 1991-2008 Altera Corporation
Your use of Altera Corporation's design tools, logic functions 
and other software and tools, and its AMPP partner logic 
functions, and any output files from any of the foregoing 
(including device programming or simulation files), and any 
associated documentation or information are expressly subject 
to the terms and conditions of the Altera Program License 
Subscription Agreement, Altera MegaCore Function License 
Agreement, or other applicable license agreement, including, 
without limitation, that your use is for the sole purpose of 
programming logic devices manufactured by Altera and sold by 
Altera or its authorized distributors.  Please refer to the 
applicable agreement for further details.
$end

$date 
  01/19/2023 11:51:51 
$end
$version 
 QUARTUS_VCD_EXPORT 1.0 
$end
$timescale
  1 ps
$end
$scope module Project $end
$var reg 1 ! buy $end
$var reg 1 " clk $end
$var reg 12 # cost[11:0] $end
$var reg 1 $ led $end
$var reg 12 % money[11:0] $end
$var reg 4 & password[3:0] $end
$var reg 3 ' price0[2:0] $end
$var reg 3 ( price1[2:0] $end
$var reg 3 ) price2[2:0] $end
$var reg 1 * pricec $end
$var reg 3 + quant[2:0] $end
$var reg 1 , quantc $end
$var reg 1 - reset $end
$var reg 3 . select[2:0] $end
$var reg 1 / stockc $end
$var reg 1 0 tk5 $end
$var reg 1 1 tk10 $end
$var reg 1 2 tk20 $end
$var reg 3 3 stock0[2:0] $end
$var reg 3 4 stock1[2:0] $end
$var reg 3 5 stock2[2:0] $end
$upscope $end
$enddefinitions $end
#0
$dumpvars
0!
0"
bX00000000 #
0$
bX00000000 %
b0 &
b10 '
b100 (
b101 )
0*
b0 +
0,
0-
b10 .
0/
10
01
02
b111 3
b111 4
b111 5
$end
#20000000000
1"
#40000000000
0"
#60000000000
1"
#80000000000
0"
#100000000000
1"
#120000000000
0"
#140000000000
1"
#160000000000
0"
#180000000000
1"
#200000000000
0"
#220000000000
1"
#240000000000
0"
#260000000000
1"
#280000000000
0"
#300000000000
1"
#320000000000
0"
#340000000000
1"
#360000000000
0"
#380000000000
1"
#400000000000
0"
#420000000000
1"
#440000000000
0"
#460000000000
1"
#480000000000
0"
#500000000000
1"
#520000000000
0"
#540000000000
1"
#560000000000
0"
#580000000000
1"
#600000000000
0"
#620000000000
1"
#640000000000
0"
#660000000000
1"
#680000000000
0"
#700000000000
1"
#720000000000
0"
#740000000000
1"
#760000000000
0"
#780000000000
1"
#800000000000
0"
#820000000000
1"
#840000000000
0"
#860000000000
1"
#880000000000
0"
#900000000000
1"
#920000000000
0"
#940000000000
1"
#960000000000
0"
#980000000000
1"
#1000000000000
0"
b1011 &
1*
00
#1020000000000
1"
1$
#1040000000000
0"
#1060000000000
1"
#1080000000000
0"
#1100000000000
1"
#1120000000000
0"
#1140000000000
1"
#1160000000000
0"
#1180000000000
1"
#1200000000000
0"
#1220000000000
1"
#1240000000000
0"
#1260000000000
1"
#1280000000000
0"
#1300000000000
1"
#1320000000000
0"
#1340000000000
1"
#1360000000000
0"
#1380000000000
1"
#1400000000000
0"
#1420000000000
1"
#1440000000000
0"
#1460000000000
1"
#1480000000000
0"
#1500000000000
1"
#1520000000000
0"
#1540000000000
1"
#1560000000000
0"
#1580000000000
1"
#1600000000000
0"
#1620000000000
1"
#1640000000000
0"
#1660000000000
1"
#1680000000000
0"
#1700000000000
1"
#1720000000000
0"
#1740000000000
1"
#1760000000000
0"
#1780000000000
1"
#1800000000000
0"
#1820000000000
1"
#1840000000000
0"
#1860000000000
1"
#1880000000000
0"
#1900000000000
1"
#1920000000000
0"
#1940000000000
1"
#1960000000000
0"
#1980000000000
1"
#2000000000000
0"
b0 &
0*
1,
#2020000000000
1"
0$
#2040000000000
0"
#2060000000000
1"
#2080000000000
0"
#2100000000000
1"
#2120000000000
0"
#2140000000000
1"
#2160000000000
0"
#2180000000000
1"
#2200000000000
0"
#2220000000000
1"
#2240000000000
0"
#2260000000000
1"
#2280000000000
0"
#2300000000000
1"
#2320000000000
0"
#2340000000000
1"
#2360000000000
0"
#2380000000000
1"
#2400000000000
0"
#2420000000000
1"
#2440000000000
0"
#2460000000000
1"
#2480000000000
0"
#2500000000000
1"
#2520000000000
0"
#2540000000000
1"
#2560000000000
0"
#2580000000000
1"
#2600000000000
0"
#2620000000000
1"
#2640000000000
0"
#2660000000000
1"
#2680000000000
0"
#2700000000000
1"
#2720000000000
0"
#2740000000000
1"
#2760000000000
0"
#2780000000000
1"
#2800000000000
0"
#2820000000000
1"
#2840000000000
0"
#2860000000000
1"
#2880000000000
0"
#2900000000000
1"
#2920000000000
0"
#2940000000000
1"
#2960000000000
0"
#2980000000000
1"
#3000000000000
0"
0,
11
#3020000000000
1"
#3040000000000
0"
#3060000000000
1"
#3080000000000
0"
#3100000000000
1"
#3120000000000
0"
#3140000000000
1"
#3160000000000
0"
#3180000000000
1"
#3200000000000
0"
#3220000000000
1"
#3240000000000
0"
#3260000000000
1"
#3280000000000
0"
#3300000000000
1"
#3320000000000
0"
#3340000000000
1"
#3360000000000
0"
#3380000000000
1"
#3400000000000
0"
#3420000000000
1"
#3440000000000
0"
#3460000000000
1"
#3480000000000
0"
#3500000000000
1"
#3520000000000
0"
#3540000000000
1"
#3560000000000
0"
#3580000000000
1"
#3600000000000
0"
#3620000000000
1"
#3640000000000
0"
#3660000000000
1"
#3680000000000
0"
#3700000000000
1"
#3720000000000
0"
#3740000000000
1"
#3760000000000
0"
#3780000000000
1"
#3800000000000
0"
#3820000000000
1"
#3840000000000
0"
#3860000000000
1"
#3880000000000
0"
#3900000000000
1"
#3920000000000
0"
#3940000000000
1"
#3960000000000
0"
#3980000000000
1"
#4000000000000
0"
1,
01
#4020000000000
1"
#4040000000000
0"
#4060000000000
1"
#4080000000000
0"
#4100000000000
1"
#4120000000000
0"
#4140000000000
1"
#4160000000000
0"
#4180000000000
1"
#4200000000000
0"
#4220000000000
1"
#4240000000000
0"
#4260000000000
1"
#4280000000000
0"
#4300000000000
1"
#4320000000000
0"
#4340000000000
1"
#4360000000000
0"
#4380000000000
1"
#4400000000000
0"
#4420000000000
1"
#4440000000000
0"
#4460000000000
1"
#4480000000000
0"
#4500000000000
1"
#4520000000000
0"
#4540000000000
1"
#4560000000000
0"
#4580000000000
1"
#4600000000000
0"
#4620000000000
1"
#4640000000000
0"
#4660000000000
1"
#4680000000000
0"
#4700000000000
1"
#4720000000000
0"
#4740000000000
1"
#4760000000000
0"
#4780000000000
1"
#4800000000000
0"
#4820000000000
1"
#4840000000000
0"
#4860000000000
1"
#4880000000000
0"
#4900000000000
1"
#4920000000000
0"
#4940000000000
1"
#4960000000000
0"
#4980000000000
1"
#5000000000000
0"
0,
12
